===============================================================
Gobuster v3.0.1
by OJ Reeves (@TheColonial) & Christian Mehlmauer (@_FireFart_)
===============================================================
[+] Url:            http://10.10.10.218/weather/
[+] Threads:        10
[+] Wordlist:       /usr/share/wordlists/dirbuster/directory-list-2.3-medium.txt
[+] Status codes:   200,204,301,302,307,401,403
[+] User Agent:     gobuster/3.0.1
[+] Extensions:     txt
[+] Timeout:        10s
===============================================================
2021/03/26 20:14:18 Starting gobuster
===============================================================
/forecast (Status: 200)
===============================================================
2021/03/26 20:39:20 Finished
===============================================================
